Level: Error
Message: Uncaught Error: Request timed out after 25000 ms
Source: https://eu1-ds-iam.3dexperience.3ds.com/3DPassport/resources-210420163219/js/DS/W3DPassport/dsp/DSP.js
Line: 640
-----------------------
Level: Error
Message: Uncaught Error: Request timed out after 25000 ms
Source: https://eu1-ds-iam.3dexperience.3ds.com/3DPassport/resources-210420163219/js/DS/W3DPassport/dsp/DSP.js
Line: 640
-----------------------
Level: Error
Message: Uncaught Error: Request timed out after 25000 ms
Source: https://eu1-ds-iam.3dexperience.3ds.com/3DPassport/resources-210420163219/js/DS/W3DPassport/dsp/DSP.js
Line: 640
-----------------------
